{
  "path": "games",
  "name": "games",
  "type": "folder",
  "children": [
    {
      "path": "games/13-days-after-13195.swf",
      "name": "13-days-after-13195.swf",
      "type": "file"
    },
    {
      "path": "games/abobos-big-adventure-12842fdd9.swf",
      "name": "abobos-big-adventure-12842fdd9.swf",
      "type": "file"
    },
    {
      "path": "games/aqua-slug-491.swf",
      "name": "aqua-slug-491.swf",
      "type": "file"
    },
    {
      "path": "games/arcane-castle-1215817f.swf",
      "name": "arcane-castle-1215817f.swf",
      "type": "file"
    },
    {
      "path": "games/mario-combat-27795ed4.swf",
      "name": "mario-combat-27795ed4.swf",
      "type": "file"
    },
    {
      "path": "games/meat-boy-2388817f.swf",
      "name": "meat-boy-2388817f.swf",
      "type": "file"
    },
    {
      "path": "games/medieval-rampage-2-43799cba.swf",
      "name": "medieval-rampage-2-43799cba.swf",
      "type": "file"
    },
    {
      "path": "games/medieval-rampage-3-156389218.swf",
      "name": "medieval-rampage-3-156389218.swf",
      "type": "file"
    },
    {
      "path": "games/mesmemarble-1341817f.swf",
      "name": "mesmemarble-1341817f.swf",
      "type": "file"
    },
    {
      "path": "games/microbe-kombat-2258817f.swf",
      "name": "microbe-kombat-2258817f.swf",
      "type": "file"
    },
    {
      "path": "games/miniclip-space-invad-393817f.swf",
      "name": "miniclip-space-invad-393817f.swf",
      "type": "file"
    },
    {
      "path": "games/motocross-fmx-411817f.swf",
      "name": "motocross-fmx-411817f.swf",
      "type": "file"
    },
    {
      "path": "games/mountain-bike-128817f.swf",
      "name": "mountain-bike-128817f.swf",
      "type": "file"
    },
    {
      "path": "games/mutants-2-1121817f.swf",
      "name": "mutants-2-1121817f.swf",
      "type": "file"
    },
    {
      "path": "games/ninja-hunter-1722817f.swf",
      "name": "ninja-hunter-1722817f.swf",
      "type": "file"
    },
    {
      "path": "games/nordic-chill-399817f.swf",
      "name": "nordic-chill-399817f.swf",
      "type": "file"
    },
    { "path": "games/oT0jyb2.gif", "name": "oT0jyb2.gif", "type": "file" },
    {
      "path": "games/orc-slayer-2-327817f.swf",
      "name": "orc-slayer-2-327817f.swf",
      "type": "file"
    },
    {
      "path": "games/out-of-this-world-12347fdd9.swf",
      "name": "out-of-this-world-12347fdd9.swf",
      "type": "file"
    },
    {
      "path": "games/outer-invasion-153569e20.swf",
      "name": "outer-invasion-153569e20.swf",
      "type": "file"
    },
    {
      "path": "games/paintball-368817f.swf",
      "name": "paintball-368817f.swf",
      "type": "file"
    },
    {
      "path": "games/paintball-the-game-518817f.swf",
      "name": "paintball-the-game-518817f.swf",
      "type": "file"
    },
    {
      "path": "games/paladin-the-game-629817f.swf",
      "name": "paladin-the-game-629817f.swf",
      "type": "file"
    },
    {
      "path": "games/paper-war-44109cba.swf",
      "name": "paper-war-44109cba.swf",
      "type": "file"
    },
    {
      "path": "games/pencil-racer-824817f.swf",
      "name": "pencil-racer-824817f.swf",
      "type": "file"
    },
    {
      "path": "games/pixel-quest-12576fdd9.swf",
      "name": "pixel-quest-12576fdd9.swf",
      "type": "file"
    },
    {
      "path": "games/pixel-wizards-12257fdd9.swf",
      "name": "pixel-wizards-12257fdd9.swf",
      "type": "file"
    },
    {
      "path": "games/pocket-creature-131103467.swf",
      "name": "pocket-creature-131103467.swf",
      "type": "file"
    },
    {
      "path": "games/pyro-guy-138383467.swf",
      "name": "pyro-guy-138383467.swf",
      "type": "file"
    },
    {
      "path": "games/rage-3-2501817f.swf",
      "name": "rage-3-2501817f.swf",
      "type": "file"
    },
    {
      "path": "games/rampage-rex-161126216.swf",
      "name": "rampage-rex-161126216.swf",
      "type": "file"
    },
    {
      "path": "games/sniper-assassin-2-2224817f.swf",
      "name": "sniper-assassin-2-2224817f.swf",
      "type": "file"
    },
    {
      "path": "games/supermario63.swf",
      "name": "supermario63.swf",
      "type": "file"
    }
  ]
}
